{
    "defaultSeverity": "error",
    "extends": [
        "tslint:recommended"
    ],
    "jsRules": {},
    "rules": {
      "ordered-imports": false,
      "arrow-parens": false,
      "member-access": false,
      "object-literal-sort-keys": false,
      "interface-name": false
    },
    "rulesDirectory": []
}